<?xml version="1.0" encoding="utf-8"?>
<!-- Generator: Adobe Illustrator 19.0.0, SVG Export Plug-In . SVG Version: 6.00 Build 0)  -->
<svg version="1.1" id="Layer_1" xmlns="http://www.w3.org/2000/svg" xmlns:xlink="http://www.w3.org/1999/xlink" x="0px" y="0px"
	 width="49.7px" height="56.8px" viewBox="-172 388.2 49.7 56.8" style="enable-background:new -172 388.2 49.7 56.8;"
	 xml:space="preserve">
<style type="text/css">
	.st0{fill:#5E0D8B;}
</style>
<g id="XMLID_85_">
	<path id="XMLID_225_" class="st0" d="M-154.6,418.8c-1.6,0-2.9,1-3.5,2.3c-0.3,0.7,0.2,1.4,1,1.4h0.2c0.4,0,0.8-0.2,0.9-0.6
		c0.2-0.5,0.8-0.9,1.4-0.9c0.6,0,1.1,0.4,1.4,0.9c0.2,0.4,0.5,0.6,0.9,0.6h0.2c0.7,0,1.3-0.8,1-1.4
		C-151.7,419.8-153,418.8-154.6,418.8z"/>
	<circle id="XMLID_227_" class="st0" cx="-140.1" cy="408.8" r="1"/>
	<path id="XMLID_231_" class="st0" d="M-154.4,409.8c0.4-0.1,0.8-0.4,0.9-0.9c0.1-0.7-0.5-1.3-1.2-1.2c-0.4,0.1-0.8,0.4-0.9,0.9
		C-155.7,409.3-155.1,409.9-154.4,409.8z"/>
	<path id="XMLID_243_" class="st0" d="M-140.1,418.8c-1.6,0-2.9,1-3.5,2.3c-0.3,0.7,0.2,1.4,1,1.4h0.2c0.4,0,0.8-0.2,0.9-0.6
		c0.2-0.5,0.8-0.9,1.4-0.9c0.6,0,1.1,0.4,1.4,0.9c0.2,0.4,0.5,0.6,0.9,0.6h0.2c0.7,0,1.3-0.8,1-1.4
		C-137.2,419.8-138.6,418.8-140.1,418.8z"/>
	<g id="XMLID_83_">
		<g id="XMLID_20_">
			<path id="XMLID_263_" class="st0" d="M-127.1,404.2l-17.7-13.2c-1.5-1.1-3.6-1.1-5.1,0l-17.7,13.2c-1.2,0.9-1.9,2.3-1.9,3.8v31.2
				c0,2.1,1.7,3.8,3.8,3.8h36.3c2.4,0,4.3-1.9,4.3-4.3v-30.6C-125.1,406.6-125.9,405.1-127.1,404.2z M-137.5,434
				c-2.1,3-5.8,4.9-9.9,4.9c-4.1,0-7.7-1.9-9.9-4.9c-0.3-0.4,0.2-1,0.7-0.7c2.6,1.5,5.8,2.3,9.2,2.3c3.4,0,6.6-0.9,9.2-2.3
				C-137.7,433-137.1,433.6-137.5,434z M-147.3,434.3c-8.6,0-15.5-5.2-15.5-11.5c0-2.9,1.5-5.6,3.9-7.6c-0.2-0.6-0.2-1.3-0.2-2
				c0-1.4,0.4-2.8,1-4c-0.1-0.1-0.2-0.1-0.2-0.2l-2.1-2.1c-0.8-0.8-0.8-2.1,0-2.9l0.9-0.9c0.8-0.8,2.1-0.8,2.9,0l2.1,2.1l0.1,0.1
				c2-1.3,4.5-2.1,7.3-2.1c2.8,0,5.3,0.8,7.3,2.1l0.1-0.1l2.1-2.1c0.8-0.8,2.1-0.8,2.9,0l0.9,0.9c0.8,0.8,0.8,2.1,0,2.9l-2.1,2.1
				c-0.1,0.1-0.1,0.1-0.2,0.2c0.6,1.2,1,2.6,1,4c0,0.7-0.1,1.3-0.2,2c2.4,2,3.9,4.7,3.9,7.6C-131.8,429.1-138.7,434.3-147.3,434.3z"
				/>
		</g>
	</g>
</g>
</svg>
