{
    "name": "Agency",
    "alias": "agency",
    "description": "",
    "keywords": [],
    "active": 1,
    "order": 0,
    "providers": [
        "Modules\\Agency\\Providers\\AgencyServiceProvider",
        "Modules\\Agency\\Providers\\RouteServiceProvider"
    ],
    "aliases": {},
    "files": [
        "start.php"
    ],
    "requires": []
}
